0;BRO80AKBNA;BRO80AK;1;2000149;1;1;1000;5000;Geladeira / Refrigerador;Geladeira / Refrigerador;Geladeira / Refrigerador;1
0;BRO80AKANA;BRO80AK;1;2000150;1;1;1000;5000;Geladeira / Refrigerador;Geladeira / Refrigerador;Geladeira / Refrigerador;1
0;CRM55ABBNA;CRM55AB;1;2000178;1;1;1000;5000;Geladeira / Refrigerador;Geladeira / Refrigerador;Geladeira / Refrigerador;1
0;CRM55ABANA;CRM55AB;1;2000179;1;1;1000;5000;Geladeira / Refrigerador;Geladeira / Refrigerador;Geladeira / Refrigerador;1
0;CZD12ATANA;CZD12AT;1;2000185;1;1;1000;5000;Cervejeira;Cervejeira;Cervejeira;1
0;CZD12ATBNA;CZD12AT;1;2000186;1;1;1000;5000;Cervejeira;Cervejeira;Cervejeira;1
0;BZC12BEBNA;BZC12BE;1;2000415;1;1;1000;5000;Adega de Vinho;Adega de Vinho;Adega de Vinho;1
0;BZC12BEANA;BZC12BE;1;2000417;1;1;1000;5000;Adega de Vinho;Adega de Vinho;Adega de Vinho;1
0;BYO4TARUNA;BYO4TAR;1;2001279;1;1;1000;5000;Embutir;Embutir;Embutir;1
0;BDD85AEUNA;BDD85AE;1;2001329;1;1;1000;5000;Cooktop;Cooktop;Cooktop;1
0;BWN15AKANA;BWN15AK;1;2001644;1;1;1000;5000;Lavadora de Roupas;Lavadora de Roupas;Lavadora de Roupas;1
0;BWH15ABBNA;BWH15AB;1;2001645;1;1;1000;5000;Lavadora de Roupas;Lavadora de Roupas;Lavadora de Roupas;1
0;BWN15AKBNA;BWN15AK;1;2001648;1;1;1000;5000;Lavadora de Roupas;Lavadora de Roupas;Lavadora de Roupas;1
0;BWH15ABANA;BWH15AB;1;2001649;1;1;1000;5000;Lavadora de Roupas;Lavadora de Roupas;Lavadora de Roupas;1
0;BWK11ABANA;BWK11AB;1;2002040;1;1;1000;5000;Lavadora de Roupas;Lavadora de Roupas;Lavadora de Roupas;1
0;BWK11ABBNA;BWK11AB;1;2002041;1;1;1000;5000;Lavadora de Roupas;Lavadora de Roupas;Lavadora de Roupas;1
0;BRE80AKANA;BRE80AK;1;2002144;1;1;1000;5000;Geladeira / Refrigerador;Geladeira / Refrigerador;Geladeira / Refrigerador;1
0;BRE80AKBNA;BRE80AK;1;2002145;1;1;1000;5000;Geladeira / Refrigerador;Geladeira / Refrigerador;Geladeira / Refrigerador;1
0;CFO4VATUNA;CFO4VAT;1;2002171;1;1;1000;5000;Piso;Piso;Piso;1
0;BWT12ABANA;BWT12AB;1;2002405;1;1;1000;5000;Lavadora de Roupas;Lavadora de Roupas;Lavadora de Roupas;1
0;BWT12ABBNA;BWT12AB;1;2002406;1;1;1000;5000;Lavadora de Roupas;Lavadora de Roupas;Lavadora de Roupas;1
0;CRM38NKANA;CRM38NK;1;2003297;1;1;1000;5000;Geladeira / Refrigerador;Geladeira / Refrigerador;Geladeira / Refrigerador;1
0;CRM38NKBNA;CRM38NK;1;2003298;1;1;1000;5000;Geladeira / Refrigerador;Geladeira / Refrigerador;Geladeira / Refrigerador;1
0;BWJ09ABANA;BWJ09AB;1;2003450;1;1;1000;5000;Lavadora de Roupas;Lavadora de Roupas;Lavadora de Roupas;1
0;BWJ09ABBNA;BWJ09AB;1;2003451;1;1;1000;5000;Lavadora de Roupas;Lavadora de Roupas;Lavadora de Roupas;1
0;BOA84AERNA;BOA84AE;1;2003664;1;1;1000;5000;Forno de Embutir;Forno de Embutir;Forno de Embutir;1
0;BOC84AEBNA;BOC84AE;1;2003665;1;1;1000;5000;Forno de Embutir;Forno de Embutir;Forno de Embutir;1
0;COA84BRRNA;COA84BR;1;2003964;1;1;1000;5000;Forno de Embutir;Forno de Embutir;Forno de Embutir;1
0;BWJ11ABANA;BWJ11AB;1;2003981;1;1;1000;5000;Lavadora de Roupas;Lavadora de Roupas;Lavadora de Roupas;1
0;BWJ11ABBNA;BWJ11AB;1;2003982;1;1;1000;5000;Lavadora de Roupas;Lavadora de Roupas;Lavadora de Roupas;1
0;CWS11ABANA;CWS11AB;1;2004530;1;1;1000;5000;Lavadora de Roupas;Lavadora de Roupas;Lavadora de Roupas;1
0;CWS11ABBNA;CWS11AB;1;2004531;1;1;1000;5000;Lavadora de Roupas;Lavadora de Roupas;Lavadora de Roupas;1
0;BMG45ARANA;BMG45AR;1;2004536;1;1;1000;5000;Micro-ondas;Micro-ondas;Micro-ondas;1
0;BMG45ARBNA;BMG45AR;1;2004537;1;1;1000;5000;Micro-ondas;Micro-ondas;Micro-ondas;1
