null;BA790BRRNA;2883.73;2
null;BAI60BRANA;732.96;2
null;BAI91BRANA;823.5;2
null;BDD61AEUNA;450.97;2
null;BDD62AEUNA;555.45;2
null;BDD75AEUNA;559;2
null;BDD85AEUNA;629;2
null;BDJ30AEANA;399;2
null;BDK75DRBNA;1066.69;2
null;BDK90DRBNA;2099;2
null;BDT62AEUNA;699;2
null;BDT85AEUNA;780.4;2
null;BDT86AEUNA;1331.04;2
null;BF150ARNNA;1149;2
null;BFD4TABNNA;1599;2
null;BFD4TARNNA;1999;2
null;BFO4NABUNA;749;2
null;BFO4TABUNA;888.23;2
null;BFO4TARUNA;917.07;2
null;BFS4GARNNA;1499;2
null;BFS5QBBUNA;1287.7;2
null;BFS5QBRUNA;1580.13;2
null;BFS5TBBUNA;1210.85;2
null;BFS5VARNNA;2413.95;2
null;BFS6NBBUNA;1186.12;2
null;BFS6NBRUNA;1096.48;2
null;BLB14CRANA;4026.39;2
null;BLF08ABBNA;1101.45;2
null;BLF08ASBNA;1156.5;2
null;BLF10ASANA;2548.61;2
null;BLF12ABBNA;2360.36;2
null;BLF12ARBNA;2892.66;2
null;BMJ38ARANA;656.99;2
null;BMO40ARBNA;3299;2
null;BO160ARBNA;1770.95;2
null;BO260ARBNA;2062.47;2
null;BO360ARRNA;1301.75;2
null;BOA84AERNA;1205.21;2
null;BOC84AEBNA;1299;2
null;BRA08AEANA;898.3;2
null;BRA08AVANA;912.45;2
null;BRA08BBANA;1278.16;2
null;BRA08BYANA;957.58;2
null;BRE50NBANA;2117.55;2
null;BRE50NEANA;1999.88;2
null;BRE50NKANA;1984.54;2
null;BRE51NBANA;2131.93;2
null;BRE51NKANA;2219.16;2
null;BRE80ABANA;2893.52;2
null;BRE80AKANA;3378.09;2
null;BRM39EBANA;1500.87;2
null;BRM39EKANA;1501.08;2
null;BRM42EBANA;1521.27;2
null;BRM48NBANA;1959;2
null;BRM48NKANA;2087.26;2
null;BRM50NBANA;2113.06;2
null;BRM50NKANA;2252.22;2
null;BRO80AKANA;4155.01;2
null;BRS62CBANA;6989;2
null;BSI10ABANA;1464.22;2
null;BSR10ABANA;1493.36;2
null;BVG24HBANA;1594.09;2
null;BVR28HBANA;1517.79;2
null;BVR28HRANA;1623.65;2
null;BWB08ABANA;992.87;2
null;BWC10BBANA;1006.95;2
null;BWJ09ABANA;1171.8;2
null;BWK11ABANA;1120.23;2
null;BWT12ABANA;1415.03;2
null;BYO4TABUNA;929;2
null;BYO4TARUNA;969;2
null;BYS5CARNNA;3799;2
null;BYS5QBRUNA;1666.35;2
null;BZB31AEANA;2041.32;2
null;BZC12BEANA;639;2
